…
The functions gather_predictions() and spread_predictions() allow for adding predictions from multiple models at once.

Taking the sim1_mod example,

sim1_mod <- lm(y ~ x, data = sim1)
grid <- sim1 %>%
  data_grid(x)
The function add_predictions() adds only a single model at a time. To add two models:

grid %>%
  add_predictions(sim1_mod, var = "pred_lm") %>%
  add_predictions(sim1_loess, var = "pred_loess")
#> # A tibble: 10 x 3
#>       x pred_lm pred_loess
#>   <int>   <dbl>      <dbl>
#> 1     1    6.27       5.34
#> 2     2    8.32       8.27
#> 3     3   10.4       10.8 
#> 4     4   12.4       12.8 
#> 5     5   14.5       14.6 
#> 6     6   16.5       16.6 
#> # … with 4 more rows
The function gather_predictions() adds predictions from multiple models by stacking the results and adding a column with the model name,

grid %>%
  gather_predictions(sim1_mod, sim1_loess)
#> # A tibble: 20 x 3
#>   model        x  pred
#>   <chr>    <int> <dbl>
#> 1 sim1_mod     1  6.27
#> 2 sim1_mod     2  8.32
#> 3 sim1_mod     3 10.4 
#> 4 sim1_mod     4 12.4 
#> 5 sim1_mod     5 14.5 
#> 6 sim1_mod     6 16.5 
#> # … with 14 more rows
The function spread_predictions() adds predictions from multiple models by adding multiple columns (postfixed with the model name) with predictions from each model.

grid %>%
  spread_predictions(sim1_mod, sim1_loess)
#> # A tibble: 10 x 3
#>       x sim1_mod sim1_loess
#>   <int>    <dbl>      <dbl>
#> 1     1     6.27       5.34
#> 2     2     8.32       8.27
#> 3     3    10.4       10.8 
#> 4     4    12.4       12.8 
#> 5     5    14.5       14.6 
#> 6     6    16.5       16.6 
#> # … with 4 more rows
The function spread_predictions() is similar to the example which runs add_predictions() for each model, and is equivalent to running spread() after running gather_predictions():

grid %>%
  gather_predictions(sim1_mod, sim1_loess) %>%
  spread(model, pred)
#> # A tibble: 10 x 3
#>       x sim1_loess sim1_mod
#>   <int>      <dbl>    <dbl>
#> 1     1       5.34     6.27
#> 2     2       8.27     8.32
#> 3     3      10.8     10.4 
#> 4     4      12.8     12.4 
#> 5     5      14.6     14.5 
#> 6     6      16.6     16.5 
#> # … with 4 more rows
…
For x1 * x2 when x2 is a categorical variable produces indicator variables x2b, x2c, x2d and variables x1:x2b, x1:x2c, and x1:x2d which are the products of x1 and x2* variables:

x3 <- model_matrix(y ~ x1 * x2, data = sim3)
x3
#> # A tibble: 120 x 8
#>   `(Intercept)`    x1   x2b   x2c   x2d `x1:x2b` `x1:x2c` `x1:x2d`
#>           <dbl> <dbl> <dbl> <dbl> <dbl>    <dbl>    <dbl>    <dbl>
#> 1             1     1     0     0     0        0        0        0
#> 2             1     1     0     0     0        0        0        0
#> 3             1     1     0     0     0        0        0        0
#> 4             1     1     1     0     0        1        0        0
#> 5             1     1     1     0     0        1        0        0
#> 6             1     1     1     0     0        1        0        0
#> # … with 114 more rows
We can confirm that the variables x1:x2b is the product of x1 and x2b,

all(x3[["x1:x2b"]] == (x3[["x1"]] * x3[["x2b"]]))
#> [1] TRUE
and similarly for x1:x2c and x2c, and x1:x2d and x2d:

all(x3[["x1:x2c"]] == (x3[["x1"]] * x3[["x2c"]]))
#> [1] TRUE
all(x3[["x1:x2d"]] == (x3[["x1"]] * x3[["x2d"]]))
#> [1] TRUE
For x1 * x2 where both x1 and x2 are continuous variables, model_matrix() creates variables x1, x2, and x1:x2:

x4 <- model_matrix(y ~ x1 * x2, data = sim4)
x4
#> # A tibble: 300 x 4
#>   `(Intercept)`    x1     x2 `x1:x2`
#>           <dbl> <dbl>  <dbl>   <dbl>
#> 1             1    -1 -1       1    
#> 2             1    -1 -1       1    
#> 3             1    -1 -1       1    
#> 4             1    -1 -0.778   0.778
#> 5             1    -1 -0.778   0.778
#> 6             1    -1 -0.778   0.778
#> # … with 294 more rows
…
levels(sim3$x2)
#> [1] "a" "b" "c" "d"
Since x1 is numeric it is unchanged. Since x2 is a factor it is replaced with columns of indicator variables for all but one of its levels. I will first consider the special case in which x2 only takes the levels of x2 in sim3. In this case, “a” is considered the reference level and omitted, and new columns are made for “b”, “c”, and “d”.

model_matrix_mod1 <- function(.data) {
  mutate(.data,
    x2b = as.numeric(x2 == "b"),
    x2c = as.numeric(x2 == "c"),
    x2d = as.numeric(x2 == "d"),
    `(Intercept)` = 1
  ) %>%
    select(`(Intercept)`, x1, x2b, x2c, x2d)
}
model_matrix_mod1(sim3)
#> # A tibble: 120 x 5
#>   `(Intercept)`    x1   x2b   x2c   x2d
#>           <dbl> <int> <dbl> <dbl> <dbl>
#> 1             1     1     0     0     0
#> 2             1     1     0     0     0
#> 3             1     1     0     0     0
#> 4             1     1     1     0     0
#> 5             1     1     1     0     0
#> 6             1     1     1     0     0
#> # … with 114 more rows
…
  for (lvl in lvls) {
    # new column name x2 + level name
    varname <- str_c("x2", lvl)
    # add indicator variable for lvl
    .data[[varname]] <- as.numeric(.data$x2 == lvl)
  }
  # generate the list of variables to keep
  x2_variables <- str_c("x2", lvls)
  # Add an intercept
  .data[["(Intercept)"]] <- 1
  # keep x1 and x2 indicator variables
  select(.data, `(Intercept)`, x1, all_of(x2_variables))
}
model_matrix_mod1b(sim3)
#> # A tibble: 120 x 5
#>   `(Intercept)`    x1   x2b   x2c   x2d
#>           <dbl> <int> <dbl> <dbl> <dbl>
#> 1             1     1     0     0     0
#> 2             1     1     0     0     0
#> 3             1     1     0     0     0
#> 4             1     1     1     0     0
#> 5             1     1     1     0     0
#> 6             1     1     1     0     0
#> # … with 114 more rows
…
model_matrix_mod2 <- function(.data) {
  mutate(.data,
    `(Intercept)` = 1,
    x2b = as.numeric(x2 == "b"),
    x2c = as.numeric(x2 == "c"),
    x2d = as.numeric(x2 == "d"),
    `x1:x2b` = x1 * x2b,
    `x1:x2c` = x1 * x2c,
    `x1:x2d` = x1 * x2d
  ) %>%
    select(`(Intercept)`, x1, x2b, x2c, x2d, `x1:x2b`, `x1:x2c`, `x1:x2d`)
}
model_matrix_mod2(sim3)
#> # A tibble: 120 x 8
#>   `(Intercept)`    x1   x2b   x2c   x2d `x1:x2b` `x1:x2c` `x1:x2d`
#>           <dbl> <int> <dbl> <dbl> <dbl>    <dbl>    <dbl>    <dbl>
#> 1             1     1     0     0     0        0        0        0
#> 2             1     1     0     0     0        0        0        0
#> 3             1     1     0     0     0        0        0        0
#> 4             1     1     1     0     0        1        0        0
#> 5             1     1     1     0     0        1        0        0
#> 6             1     1     1     0     0        1        0        0
#> # … with 114 more rows
…
model_matrix_mod2b <- function(.data) {
  # get dataset with x1 and x2 indicator variables
  out <- model_matrix_mod1b(.data)
  # get names of the x2 indicator columns
  x2cols <- str_subset(colnames(out), "^x2")
  # create interactions between x1 and the x2 indicator columns
  for (varname in x2cols) {
    # name of the interaction variable
    newvar <- str_c("x1:", varname)
    out[[newvar]] <- out$x1 * out[[varname]]
  }
  out
}
model_matrix_mod2b(sim3)
#> # A tibble: 120 x 8
#>   `(Intercept)`    x1   x2b   x2c   x2d `x1:x2b` `x1:x2c` `x1:x2d`
#>           <dbl> <int> <dbl> <dbl> <dbl>    <dbl>    <dbl>    <dbl>
#> 1             1     1     0     0     0        0        0        0
#> 2             1     1     0     0     0        0        0        0
#> 3             1     1     0     0     0        0        0        0
#> 4             1     1     1     0     0        1        0        0
#> 5             1     1     1     0     0        1        0        0
#> 6             1     1     1     0     0        1        0        0
#> # … with 114 more rows
…
